{
    "name": "Fill4Me",
    "version": "0.5.6",
    "title": "Fill4Me",
    "author": "Kovus",
    "contact": "kovus@soulless.wtf",
    "homepage": "https://gitlab.com/FishBus/Fill4Me",
	"license": "BSD 3-clause",
    "factorio_version": "0.17",
    "dependencies": ["base >= 0.16"],
    "description": "Fill 4 Me is a Factorio mod to automatically insert fuel and/or ammunition into entities when you place them."
}
